{
  "id": [
    145,
    2,
    17,
    100,
    28,
    31,
    115,
    124,
    130,
    143,
    146,
    147
  ],
  "dry_mass": [
    100,
    100,
    100,
    100,
    "NA",
    "NA",
    100,
    100,
    "NA",
    100,
    100,
    100],
  "wet_mass": [
    100,
    100,
    100,
    100,
    "NA",
    "NA",
    100,
    100,
    "NA",
    100,
    100,
    100],
  "diameter": [
    79.0,
    79.0,
    79.0,
    79.0,
    "NA",
    "NA",
    79.0,
    79.0,
    "NA",
    79.0,
    79.0,
    79.0
  ],
  "mbr": [
    1.15,
    1.15,
    1.15,
    1.15,
    "NA",
    "NA",
    1.15,
    1.15,
    "NA",
    1.15,
    1.15,
    1.15
  ],
  "cost": [
    600.0,
    700.0,
    800.0,
    900.0,
    800.0,
    800.0,
    1000.0,
    600.0,
    800.0,
    700.0,
    800.0,
    800.0
  ]
}
